{
  "project_info": {
    "project_number": "924663849705",
    "firebase_url": "https://affable-berm-118523.firebaseio.com",
    "project_id": "affable-berm-118523",
    "storage_bucket": "affable-berm-118523.appspot.com"
  },
  "client": [
    {
      "client_info": {
        "mobilesdk_app_id": "1:924663849705:android:a088552951fb6036",
        "android_client_info": {
          "package_name": "com.fcmclout.demo"
        }
      },
      "oauth_client": [
        {
          "client_id": "924663849705-qrdttmrp3tl0id6v6mp6tkjnai6hompl.apps.googleusercontent.com",
          "client_type": 1,
          "android_info": {
            "package_name": "com.fcmclout.demo",
            "certificate_hash": "079725972e39079b55079077f9d2fb5dacde8ab5"
          }
        },
        {
          "client_id": "924663849705-3hasc517vmi2as2ko8oumpur5uhd4c0f.apps.googleusercontent.com",
          "client_type": 3
        },
        {
          "client_id": "924663849705-j1224qd5cejfgs4518c4cnn89loqhorv.apps.googleusercontent.com",
          "client_type": 3
        }
      ],
      "api_key": [
        {
          "current_key": "AIzaSyA4IcGrq3RtkgFm0dd6pC9FCSizFkY1SeQ"
        }
      ],
      "services": {
        "analytics_service": {
          "status": 1
        },
        "appinvite_service": {
          "status": 2,
          "other_platform_oauth_client": [
            {
              "client_id": "924663849705-srl3107ki94mpbcv6cj8kvftd4mo0e25.apps.googleusercontent.com",
              "client_type": 2,
              "ios_info": {
                "bundle_id": "com.fcmclout.demo"
              }
            },
            {
              "client_id": "924663849705-3hasc517vmi2as2ko8oumpur5uhd4c0f.apps.googleusercontent.com",
              "client_type": 3
            }
          ]
        },
        "ads_service": {
          "status": 2
        }
      }
    }
  ],
  "configuration_version": "1"
}